-33,7457	1
-39,7663	2
-43,2881	3
-45,7869	4
-47,7251	5
-49,3087	6
-50,6477	7
-51,8075	8
-52,8306	9
-53,7457	10
-54,5736	11
-55,3293	12
-56,0246	13
-56,6683	14
-57,2675	15
-57,8281	16
-58,3547	17
-58,8512	18
-59,3208	19
-59,7663	20
-60,1901	21
-60,5942	22
-60,9803	23
-61,3499	24
-61,7045	25
-62,0452	26
-62,373	27
-62,6889	28
-62,9937	29
-63,2881	30
-63,5729	31
-63,8487	32
-64,116	33
-64,3753	34
-64,6271	35
-64,8718	36
-65,1097	37
-65,3414	38
-65,567	39
-65,7869	40
-66,0014	41
-66,2107	42
-66,4151	43
-66,6148	44
-66,81	45
-67,0009	46
-67,1877	47
-67,3705	48
-67,5496	49
-67,7251	50
-67,8971	51
-68,0658	52
-68,2312	53
-68,3936	54
-68,553	55
-68,7095	56
-68,8632	57
-69,0143	58
-69,1628	59
-69,3087	60
-69,4523	61
-69,5935	62
-69,7325	63
-69,8693	64
-70,004	65
-70,1366	66
-70,2672	67
-70,3959	68
-70,5227	69
-70,6477	70
-70,7709	71
-70,8924	72
-71,0122	73
-71,1303	74
-71,2469	75
-71,362	76
-71,4755	77
-71,5876	78
-71,6983	79
-71,8075	80
-71,9154	81
-72,022	82
-72,1273	83
-72,2313	84
-72,3341	85
-72,4357	86
-72,5361	87
-72,6354	88
-72,7335	89
-72,8306	90
-72,9265	91
-73,0215	92
-73,1154	93
-73,2083	94
-73,3002	95
-73,3911	96
-73,4811	97
-73,5702	98
-73,6584	99
-73,7457	100
-73,8321	101
-73,9177	102
-74,0025	103
-74,0864	104
-74,1695	105
-74,2518	106
-74,3334	107
-74,4142	108
-74,4942	109
-74,5736	110
-74,6522	111
-74,7301	112
-74,8073	113
-74,8838	114
-74,9597	115
-75,0349	116
-75,1094	117
-75,1834	118
-75,2567	119
-75,3293	120
-75,4014	121
-75,4729	122
-75,5438	123
-75,6141	124
-75,6839	125
-75,7531	126
-75,8218	127
-75,8899	128
-75,9575	129
-76,0246	130
-76,0911	131
-76,1572	132
-76,2227	133
-76,2878	134
-76,3524	135
-76,4165	136
-76,4801	137
-76,5433	138
-76,606	139
-76,6683	140
-76,7301	141
-76,7915	142
-76,8524	143
-76,913	144
-76,9731	145
-77,0328	146
-77,0921	147
-77,1509	148
-77,2094	149
-77,2675	150
-77,3253	151
-77,3826	152
-77,4395	153
-77,4961	154
-77,5523	155
-77,6082	156
-77,6637	157
-77,7189	158
-77,7737	159
-77,8281	160
-77,8822	161
-77,936	162
-77,9895	163
-78,0426	164
-78,0954	165
-78,1479	166
-78,2	167
-78,2519	168
-78,3034	169
-78,3547	170
-78,4056	171
-78,4563	172
-78,5066	173
-78,5567	174
-78,6065	175
-78,656	176
-78,7052	177
-78,7541	178
-78,8028	179
-78,8512	180
-78,8993	181
-78,9471	182
-78,9947	183
-79,0421	184
-79,0891	185
-79,136	186
-79,1825	187
-79,2289	188
-79,2749	189
-79,3208	190
-79,3664	191
-79,4117	192
-79,4569	193
-79,5017	194
-79,5464	195
-79,5908	196
-79,635	197
-79,679	198
-79,7228	199
-79,7663	200
-79,8096	201
-79,8527	202
-79,8956	203
-79,9383	204
-79,9808	205
-80,0231	206
-80,0651	207
-80,107	208
-80,1486	209
-80,1901	210
-80,2314	211
-80,2724	212
-80,3133	213
-80,354	214
-80,3945	215
-80,4348	216
-80,4749	217
-80,5148	218
-80,5546	219
-80,5942	220
-80,6336	221
-80,6728	222
-80,7118	223
-80,7507	224
-80,7894	225
-80,8279	226
-80,8662	227
-80,9044	228
-80,9424	229
-80,9803	230
-81,018	231
-81,0555	232
-81,0928	233
-81,13	234
-81,1671	235
-81,204	236
-81,2407	237
-81,2773	238
-81,3137	239
-81,3499	240
-81,3861	241
-81,422	242
-81,4578	243
-81,4935	244
-81,529	245
-81,5644	246
-81,5997	247
-81,6347	248
-81,6697	249
-81,7045	250
-81,7392	251
-81,7737	252
-81,8081	253
-81,8424	254
-81,8765	255
-81,9105	256
-81,9444	257
-81,9781	258
-82,0117	259
-82,0452	260
-82,0785	261
-82,1117	262
-82,1448	263
-82,1778	264
-82,2106	265
-82,2433	266
-82,2759	267
-82,3084	268
-82,3408	269
-82,373	270
-82,4051	271
-82,4371	272
-82,469	273
-82,5007	274
-82,5324	275
-82,5639	276
-82,5953	277
-82,6266	278
-82,6578	279
-82,6889	280
-82,7198	281
-82,7507	282
-82,7814	283
-82,8121	284
-82,8426	285
-82,873	286
-82,9034	287
-82,9336	288
-82,9637	289
-82,9937	290
-83,0236	291
-83,0534	292
-83,0831	293
-83,1127	294
-83,1422	295
-83,1715	296
-83,2008	297
-83,23	298
-83,2591	299
-83,2881	300
